{
    "name": "StonePillar",
    "value": 35,
    "subtypes": {
        "00": { "direction": "Y", "rot": [0,0,0], "rot90": "01"},
        "01": { "direction": "Y", "rot": [0,1,0], "rot90": "02"},
        "02": { "direction": "Y", "rot": [0,2,0], "rot90": "03"},
        "03": { "direction": "Y", "rot": [0,3,0], "rot90": "00"},
        
        "04": { "direction": "Z", "rot": [1,0,0], "rot90": "05"},
        "05": { "direction": "X", "rot": [1,0,3], "rot90": "06"},
        "06": { "direction": "Z", "rot": [1,0,2], "rot90": "07"},
        "07": { "direction": "X", "rot": [1,0,1], "rot90": "04"},
        
        "08": { "direction": "Y", "rot": [2,0,0], "rot90": "09"},
        "09": { "direction": "Y", "rot": [2,3,0], "rot90": "0a"},
        "0a": { "direction": "Y", "rot": [2,2,0], "rot90": "0b"},
        "0b": { "direction": "Y", "rot": [2,1,0], "rot90": "08"},
        
        "0c": { "direction": "Z", "rot": [3,0,0], "rot90": "0d"},
        "0d": { "direction": "X", "rot": [3,0,1], "rot90": "0e"},
        "0e": { "direction": "Z", "rot": [3,0,2], "rot90": "0f"},
        "0f": { "direction": "X", "rot": [3,0,3], "rot90": "0c"},
        
        "10": { "direction": "X", "rot": [0,0,1], "rot90": "11"},
        "11": { "direction": "Z", "rot": [0,1,1], "rot90": "12"},
        "12": { "direction": "X", "rot": [0,2,1], "rot90": "13"},
        "13": { "direction": "Z", "rot": [0,3,1], "rot90": "10"},
        
        "14": { "direction": "X", "rot": [0,0,3], "rot90": "15"},
        "15": { "direction": "Z", "rot": [0,1,3], "rot90": "16"},
        "16": { "direction": "X", "rot": [0,2,3], "rot90": "17"},
        "17": { "direction": "Z", "rot": [0,3,3], "rot90": "14"}
    }
}